﻿[{
        "_id": "c-50",
        "_parentId": "b-50",
        "_type": "component",
        "_component": "text",
        "_classes": "",
        "_layout": "full",
        "title": "نظرة عامة",
        "displayTitle": "",
        "body": "من المفترض أن يمثل طرح تطبيقك للهواتف المحمولة واحدة من أولى خطوات إنشاء نشاطك التجاري. بعد ذلك، يجب أن تتعرف على كيفية تفاعل الأشخاص مع تطبيقك حتى تتمكن من توفير تجارب أفضل لعملائك.<br><br>هنا يأتي دور Facebook Analytics for Apps في تقديم المساعدة: تمنحك الأداة رؤى حول المناطق التي تحتاج إلى تحسين داخل تطبيقك لتتمكن من توفير تجارب أفضل للمستخدمين وزيادة التحويلات. ويتم ذلك من خلال قياس الأداة لسمات وسلوكيات الأشخاص الذين قاموا بتثبيت تطبيقك وتفاعلوا معه عبر الأجهزة، بما في ذلك الأشخاص الذين لم يسجلوا دخولهم إلى فيسبوك أو حتى الذين لا يمتلكون ملفًا شخصيًا على فيسبوك.<br><br>يمكنك استخدام Analytics for Apps مجانًا ولا يلزمك استخدام تسجيل دخول فيسبوك.",
        "instruction": "",
        "_pageLevelProgress": {
            "_isEnabled": true
        }
    }, {
        "_id": "c-60",
        "_parentId": "b-50",
        "_type": "component",
        "_component": "media",
        "_classes": "",
        "_layout": "full",
        "title": "نظرة عامة على Analytics for Apps",
        "displayTitle": "",
        "body": "<i>شاهد الفيديو التالي للاطلاع على نظرة عامة عن الأداة.</i>",
        "instruction": "",
        "_setCompletionOn": "inview",
        "_useClosedCaptions": true,
        "_startLanguage": "ar",
        "_media": {
            "mp4": "course/en/videos/analytics_overview.mp4",
            "poster": "course/en/videos/analytics_overview_poster.png",
            "cc": [{
                "srclang": "ar",
                "src": "course/en/videos/analytics_overview_eng.ar_AR.srt"
            }]

        },
        "_playerOptions": {
            "poster": "",
            "showPosterWhenEnded": false,
            "defaultVideoWidth": 480,
            "defaultVideoHeight": 270,
            "videoWidth": -1,
            "videoHeight": -1,
            "defaultAudioWidth": 400,
            "defaultAudioHeight": 30,
            "defaultSeekBackwardInterval": "(media.duration * 0.05)",
            "defaultSeekForwardInterval": "(media.duration * 0.05)",
            "audioWidth": -1,
            "audioHeight": -1,
            "startVolume": 0.8,
            "loop": false,
            "autoRewind": true,
            "enableAutosize": true,
            "alwaysShowHours": false,
            "showTimecodeFrameCount": false,
            "framesPerSecond": 25,
            "autosizeProgress": true,
            "alwaysShowControls": false,
            "hideVideoControlsOnLoad": false,
            "clickToPlayPause": true,
            "iPadUseNativeControls": false,
            "iPhoneUseNativeControls": false,
            "AndroidUseNativeControls": false,
            "features": ["playpause", "current", "progress", "duration", "tracks", "volume", "fullscreen"],
            "isVideo": true,
            "enableKeyboard": true,
            "pauseOtherPlayers": true,
            "startLanguage": "ar",
            "tracksText": "mejs.i18n.t('Captions/Subtitles')",
            "hideCaptionsButtonWhenEmpty": true,
            "toggleCaptionsButtonWhenOnlyOne": false,
            "slidesSelector": ""
        }
    }, {
        "_id": "c-70",
        "_parentId": "b-60",
        "_type": "component",
        "_component": "animate-message",
        "_classes": "",
        "_layout": "full",
        "title": "المساعدة التي تقدمها أداة Facebook Analytics for Apps",
        "displayTitle": "يمكن أن يساعدك استخدام أداة Facebook Analytics for Apps في:",
        "body": "",
        "instruction": "",
        "titleAnimation": "transition.slideRightIn",
        "bodyAnimation": "transition.slideLeftIn",
        "backgroundColor": "#ffffff,#ffffff,#ffffff",
        "_spacing": "20px",
        "_pageLevelProgress": {
            "_isEnabled": true
        },
        "_items": [{
            "item_title": "",
            "body": "<br><img src='course/en/images/01_introduction/01_decisions.png' style='float:left;width:250px;height:250px;padding-right:10px;'><div style='min-height:283;'' ><b>اتخاذ قرارات ذكية</b><br>معرفة عدد مرات تشغيل الأشخاص لتطبيقك، والأجهزة التي يستخدمونها، والمعلومات الديموغرافية لأكثر عملائك قيمة، وغيرها الكثير. يمكن أن يساعدك هذا الكم من المعلومات في اتخاذ قرارات ذكية بشأن كيفية تسويق تطبيقك وتحسينه."
        }]
    }, {
        "_id": "c-71",
        "_parentId": "b-60",
        "_type": "component",
        "_component": "animate-message",
        "_classes": "",
        "_layout": "full",
        "title": "",
        "displayTitle": "",
        "body": "",
        "instruction": "",
        "titleAnimation": "transition.slideRightIn",
        "bodyAnimation": "transition.slideLeftIn",
        "backgroundColor": "#ffffff,#ffffff,#ffffff",
        "_spacing": "20px",
        "_pageLevelProgress": {
            "_isEnabled": false
        },
        "_items": [{
            "item_title": "",
            "body": "<br><img src='course/en/images/01_introduction/02_automate.png' style='float:left;width:250px;height:250px;padding-right:10px;'><div style='min-height:283;'' ><b>تنفيذ العملية التسويقية تلقائيًا</b><br>احرص على إعداد حملات إعلانية ترسل إشعارات مباشرة أو إشعارات داخل التطبيق حتى يمكنك الوصول إلى مستخدمي التطبيق بعروض مناسبة أو مشاركة معلومات عن المنتجات الجديدة. كما أن ذلك يمثل أيضًا طريقة رائعة لتشجيع الأشخاص الذين قاموا بتثبيت التطبيق لكنهم لم يقوموا بتشغيله بعد."
        }]
    }, {
        "_id": "c-72",
        "_parentId": "b-60",
        "_type": "component",
        "_component": "animate-message",
        "_classes": "",
        "_layout": "full",
        "title": "",
        "displayTitle": "",
        "body": "",
        "instruction": "",
        "titleAnimation": "transition.slideRightIn",
        "bodyAnimation": "transition.slideLeftIn",
        "backgroundColor": "#ffffff,#ffffff,#ffffff",
        "_spacing": "20px",
        "_pageLevelProgress": {
            "_isEnabled": false
        },
        "_items": [{
            "item_title": "",
            "body": "<br><img src='course/en/images/01_introduction/03_engage.png' style='float:left;width:250px;height:250px;padding-right:10px;'><div style='min-height:283;'' ><b>تشجيع تفاعل الجمهور وزيادة عدده</b><br>باستخدام رؤى الجمهور من تطبيقك واستهداف فيسبوك الذي يستند إلى الأشخاص، يمكنك عرض الإعلانات عبر مجموعة تطبيقات فيسبوك وخدماته حتى يمكنك العثور على الأشخاص الأكثر احتمالاً أن يقوموا بتثبيت تطبيقك والتفاعل معه."
        }]
    }, {
        "_id": "c-73",
        "_parentId": "b-80",
        "_type": "component",
        "_component": "text",
        "_classes": "",
        "_layout": "full",
        "title": "المتطلبات",
        "displayTitle": "المتطلبات",
        "body": "قبل بدء استخدام Analytics for Apps، لنتأكد أولاً من إعداد بعض الأمور.",
        "instruction": "",
        "_pageLevelProgress": {
            "_isEnabled": true
        }
    }, {
        "_id": "c-80",
        "_parentId": "b-80",
        "_type": "component",
        "_component": "mcq",
        "_classes": "",
        "_layout": "full",
        "_attempts": 1,
        "_shouldDisplayAttempts": false,
        "_questionWeight": 1,
        "_isRandom": false,
        "_setCompletionOn":"inview",
        "_selectable": 1,
        "_canShowModelAnswer": true,
        "_recordInteraction": true,
        "title": "المتطلب رقم 1",
        "displayTitle": "",
        "body": "1. هل لديك حساب مطور على فيسبوك؟",
        "instruction": "",
        "_items": [{
            "text": "نعم",
            "_shouldBeSelected": true
        }, {
            "text": "لا",
            "_shouldBeSelected": false
        }],
        "_feedback": {
            "correct": "رائع! انتقل إلى السؤال التالي.",
            "_incorrect": {
                "notFinal": "",
                "final": "يجب أن يكون لديك حساب لتتمكن من استخدام Analytics for Apps. <a href='https://developers.facebook.com/docs/apps/register' target='new'>تعرف</a> على كيفية إنشاء حساب."
            },
            "_partlyCorrect": {
                "notFinal": "",
                "final": "سوف تظهر هذه الملاحظات إذا كانت إجابتك صحيحة."
            }
        },
        "_buttons": {
            "_submit": {
                "buttonText": "إرسال",
                "ariaLabel": "حدد هنا لإرسال إجابتك."
            },
            "_reset": {
                "buttonText": "إعادة تعيين",
                "ariaLabel": ""
            },
            "_showCorrectAnswer": {
                "buttonText": "الإجابة الصحيحة",
                "ariaLabel": ""
            },
            "_hideCorrectAnswer": {
                "buttonText": "إجابتي",
                "ariaLabel": ""
            },
            "_showFeedback": {
                "buttonText": "إظهار الملاحظات",
                "ariaLabel": ""
            },
            "remainingAttemptsText": "محاولات متبقية",
            "remainingAttemptText": "محاولة أخيرة"
        },
        "_pageLevelProgress": {
            "_isEnabled": true
        }
    }, {
        "_id": "c-90",
        "_parentId": "b-90",
        "_type": "component",
        "_component": "mcq",
        "_classes": "",
        "_layout": "full",
        "_attempts": 1,
        "_shouldDisplayAttempts": false,
        "_questionWeight": 1,
        "_isRandom": false,
        "_setCompletionOn":"inview",
        "_selectable": 1,
        "_canShowModelAnswer": true,
        "_recordInteraction": true,
        "title": "المتطلب رقم 2",
        "displayTitle": "",
        "body": "2. هل قمت بتثبيت مجموعة Facebook SDK في تطبيقك؟",
        "instruction": "",
        "_items": [{
            "text": "نعم",
            "_shouldBeSelected": true
        }, {
            "text": "لا",
            "_shouldBeSelected": false
        }],
        "_feedback": {
            "correct": "إجابة مثالية! انتقل إلى السؤال التالي.",
            "_incorrect": {
                "notFinal": "",
                "final": "يجب تثبيت مجموعة Facebook SDK لتسجيل أحداث التطبيق، وذلك لقياس الإجراءات التي يتخذها الأشخاص مثل تثبيت التطبيق أو تشغيله أو الشراء من داخله. وإليك إرشادات الإعداد لأجهزة <a href='https://developers.facebook.com/docs/ios' target='new'>iOS</a> وأجهزة <a href='https://developers.facebook.com/docs/android' target='new'>Android</a>."
            },
            "_partlyCorrect": {
                "notFinal": "",
                "final": "سوف تظهر هذه الملاحظات إذا كانت إجابتك صحيحة."
            }
        },
        "_buttons": {
            "_submit": {
                "buttonText": "إرسال",
                "ariaLabel": "حدد هنا لإرسال إجابتك."
            },
            "_reset": {
                "buttonText": "إعادة تعيين",
                "ariaLabel": ""
            },
            "_showCorrectAnswer": {
                "buttonText": "الإجابة الصحيحة",
                "ariaLabel": ""
            },
            "_hideCorrectAnswer": {
                "buttonText": "إجابتي",
                "ariaLabel": ""
            },
            "_showFeedback": {
                "buttonText": "إظهار الملاحظات",
                "ariaLabel": ""
            },
            "remainingAttemptsText": "محاولات متبقية",
            "remainingAttemptText": "محاولة أخيرة"
        },
        "_pageLevelProgress": {
            "_isEnabled": true
        }
    }, {
        "_id": "c-100",
        "_parentId": "b-100",
        "_type": "component",
        "_component": "mcq",
        "_classes": "",
        "_layout": "full",
        "_attempts": 1,
        "_shouldDisplayAttempts": false,
        "_setCompletionOn":"inview",
        "_questionWeight": 1,
        "_isRandom": false,
        "_selectable": 1,
        "_canShowModelAnswer": true,
        "_recordInteraction": true,
        "title": "المتطلب رقم 3",
        "displayTitle": "",
        "body": "3. هل قمت بدمج أحداث التطبيق؟",
        "instruction": "",
        "_items": [{
            "text": "نعم",
            "_shouldBeSelected": true
        }, {
            "text": "لا",
            "_shouldBeSelected": false
        }],
        "_feedback": {
            "correct": "هذا أمر رائع. لنكمل الدورة التدريبية",
            "_incorrect": {
                "notFinal": "",
                "final": "هذه خطوة تالية بعد تثبيت مجموعة Facebook SDK لتطبيقك. تتيح لك أحداث التطبيق تسجيل الإجراءات التي يتخذها الأشخاص داخل تطبيقك حتى تتمكن من عرض البيانات في Analytics for Apps.<br><br>وإليك طريقة <a href='https://developers.facebook.com/docs/app-events' target='new'>دمج أحداث التطبيق</a>."
            },
            "_partlyCorrect": {
                "notFinal": "",
                "final": "سوف تظهر هذه الملاحظات إذا كانت إجابتك صحيحة."
            }
        },
        "_buttons": {
            "_submit": {
                "buttonText": "إرسال",
                "ariaLabel": "حدد هنا لإرسال إجابتك."
            },
            "_reset": {
                "buttonText": "إعادة تعيين",
                "ariaLabel": ""
            },
            "_showCorrectAnswer": {
                "buttonText": "الإجابة الصحيحة",
                "ariaLabel": ""
            },
            "_hideCorrectAnswer": {
                "buttonText": "إجابتي",
                "ariaLabel": ""
            },
            "_showFeedback": {
                "buttonText": "إظهار الملاحظات",
                "ariaLabel": ""
            },
            "remainingAttemptsText": "محاولات متبقية",
            "remainingAttemptText": "محاولة أخيرة"
        },
        "_pageLevelProgress": {
            "_isEnabled": true
        }
    }, {
        "_id": "c-110",
        "_parentId": "b-110",
        "_type": "component",
        "_component": "co-jump",
        "_classes": "color-test",
        "_preLinkBody": "لنبدأ هذه الدورة التدريبية بالتعرف على معلومات عن",
        "_linkBody": " قياس السلوكيات والمعلومات الديموغرافية",
        "_postLinkBody": " للأشخاص الذين قاموا بتثبيت تطبيقك والتفاعل معه.",
        "_link": "#/id/co-100",
        "_graphic": "adapt/css/assets/icon_nextPage.png",
        "_pageLevelProgress": {
            "_isEnabled": false
        }
    }, {
        "_id": "c-120",
        "_parentId": "b-120",
        "_type": "component",
        "_component": "text",
        "_classes": "",
        "_layout": "full",
        "title": "",
        "displayTitle": "",
        "body": "الأحداث والشرائح والمسارات والمجموعات النموذجية والمعلومات الديموغرافية - والتي تشكل جميعًا أهم أجزاء Analytics for Apps. لنلقي نظرة على كل منها قبل المضي قدمًا نحو التعرف على كيفية عملها معًا لمساعدتك في الاطلاع على رؤى حول مستخدمي تطبيقك والإجراءات التي يتخذونها.",
        "instruction": "",
        "_pageLevelProgress": {
            "_isEnabled": false
        }
    }, {
        "_id": "c-125",
        "_parentId": "b-120",
        "_type": "component",
        "_component": "canvas-animation",
        "_classes": "",
        "_layout": "full",
        "title": "الأحداث",
        "displayTitle": "الأحداث",
        "animationName": "Icon_animation",
        "animation": "course/en/animations/icon_animation/icon_animation.js",
        "body": "<div id='icon_animation'></div>",
        "_resources": {
           "textStyle_1":{"font":"18px freight-sans-pro","fill": "#000000","wordWrap": true,"wordWrapWidth":200,"align": "center","lineSpacing": -10 },
            "placeholder":"/icon_animation/placeholder.png",
            "icon_1":"course/en/animations/icon_animation/event_1.png",
            "icon_2":"course/en/animations/icon_animation/event_2.png",
            "icon_3":"course/en/animations/icon_animation/event_3.png",
            "text_1":"كم عدد الأشخاص\nالذين قاموا بتثبيت تطبيقك؟",
            "text_2":"كم عدد الأشخاص الذين\nأضافوا عناصر إلى عربة التسوق؟",
            "text_3":"كم عدد الأشخاص\nالذين أضافوا معلومات الدفع؟"
        },
        "instruction": "",
        "_pageLevelProgress": {
            "_isEnabled": false
        }
        },
        {
        "_id": "c-130",
        "_parentId": "b-130",
        "_type": "component",
        "_component": "text",
        "_classes": "",
        "_layout": "full",
        "title": "الأحداث والمعلمات المحددة مسبقًا",
        "displayTitle": "",
        "body": "من المهم الإجابة عن هذه الأنواع من الأسئلة إذا كنت تريد تحسين تطبيقك. يسأل كل سؤال من هذه الأسئلة عن إجراءات محددة يتخذها الأشخاص داخل تطبيقك. يُطلق على الإجراء، مثل تثبيت تطبيقك أو إضافة معلومات الدفع أو إضافة عنصر إلى عربة التسوق، اسم <i>حدث</i>.<br><br>يدعم Analytics for Apps أحداث التطبيقات الشائعة، والتي تمثل الإجراءات التي يتخذها الأشخاص داخل تطبيقك، مثل الإضافة إلى عربة التسوق والشراء. ونطلق على هذه الإجراءات اسم <i>الأحداث المحددة مسبقًا</i> و<i>المعلمات المحددة مسبقًا.</i> يتم قياس كل الإجراءات التي يتم اتخاذها داخل تطبيقك سواء قام المستخدمون بتسجيل دخولهم إلى فيسبوك أم لا. ويتم القياس من خلال مجموعة Facebook SDK وأحداث التطبيقات، وقد ذكرنا أنهما متطلبان ضروريان لاستخدام Analytics for Apps.<br><br>الاطلاع على قائمة كاملة بالأحداث المحددة مسبقًا لنظامي التشغيل&#160;<a href='https://developers.facebook.com/docs/app-events/ios#events' target='new'>iOS</a>&#160;و<a href='https://developers.facebook.com/docs/app-events/android#events' target='new'>Android</a>.<br><br> الاطلاع على قائمة كاملة بالمعلمات المحددة مسبقًا لنظامي التشغيل&#160;<a href='https://developers.facebook.com/docs/app-events/ios#params' target='new'>iOS</a>&#160;و<a href='https://developers.facebook.com/docs/app-events/android#params' target='new'>Android</a>.",
        "instruction": "",
        "_pageLevelProgress": {
            "_isEnabled": true
        }
    }, {
        "_id": "c-140",
        "_parentId": "b-140",
        "_type": "component",
        "_component": "text",
        "_classes": "",
        "_layout": "full",
        "title": "الشرائح",
        "displayTitle": "الشرائح",
        "body": "يعد قياس الأحداث أولى خطوات فهم كيفية استخدام الأشخاص لتطبيقك؛ بينما تمثل معرفة سمات الأشخاص الذين يتخذون هذه الإجراءات الخطوة التالية. باستخدام <i>الشرائح</i>، يمكنك تجميع المستخدمين استنادًا إلى سمات بعينها، مثل المعلومات الديموغرافية أو الإجراءات يتم اتخاذها والأجهزة المستخدمة.<br><br>وإليك مثال لشريحة يمكنك إنشاؤها في Analytics for Apps.<br><br><li>النوع: رجال<li>العمر: بين سن 18 و34<li>الموقع: يعيشون في الولايات المتحدة<li>الحدث: تنفيذ عملية شراء داخل التطبيق<li>الشريحة: ضمن أعلى 5% من الأشخاص الذين يكملون هذا الحدث (الشراء) باستمرار</li><br><br>وعلى الرغم من أن الاطلاع على هذه النظرة الشاملة عن مستخدمي تطبيقك هو أمر رائع، إلا إنه من المفيد أيضًا إلقاء نظرة متعمقة ومعرفة كيفية تصرف جماهير بعينها. ويمكنك القيام بذلك عن طريق إضافة شرائح إلى المسارات، أو المجموعات النموذجية أو التقسيمات لتحصل على رؤية أكثر تفصيلاً عن سلوك المستخدمين.",
        "instruction": "",
        "_pageLevelProgress": {
            "_isEnabled": true
        }
    }, {
        "_id": "c-150",
        "_parentId": "b-150",
        "_type": "component",
        "_component": "text",
        "_classes": "",
        "_layout": "full",
        "title": "المسارات",
        "displayTitle": "المسارات",
        "body": "يُطلق على سلسلة الأحداث التي تقوم بقياسها اسم <i>المسار</i>. تتيح لك المسارات رسم خريطة لرحلة العميل ويمكن أن تمدك بمعلومات عما يحدث منذ تثبيت الأشخاص لتطبيقك حتى إتمام التحويل، مثل تنفيذ عملية شراء داخل التطبيق. من الممكن أن ينبهك فهم نوعية الإجراءات التي يتخذها الأشخاص وتوقيتها أثناء الانتقال عبر المسار إلى وجود مواضع تعثر محتملة ونقاط يمكن تحسينها.",
        "instruction": "",
        "_pageLevelProgress": {
            "_isEnabled": true
        }
    }, {
        "_id": "c-160",
        "_parentId": "b-150",
        "_classes": "",
        "_type": "component",
        "_layout": "full",
        "_component": "narrative",
        "title": "حالات الاستخدام",
        "displayTitle": "",
        "body": "تبعًا لنوع التطبيق (على سبيل المثال: لعبة أو تجارة إلكترونية أو بيع بالتجزئة)، يجب تتبع أحداث معينة. إليك بعض توصيات إنشاء المسار، حسب مجال تطبيقك:",
        "instruction": "",
        "_hasNavigationInTextArea": false,
        "mobileInstruction": "هذا نص توجيهي اختياري يظهر عند المشاهدة من هاتف محمول.",
        "_setCompletionOn": "inview",
        "_items": [{
            "title": "بيع بالتجزئة/تجارة إلكترونية",
            "body": "<li>عمليات البحث<li>إجراءات الإضافة إلى قائمة الرغبات<li>إجراءات الإضافة إلى عربة التسوق<li>إجراءات بدء إتمام عملية الشراء<li>عمليات الشراء",
            "_graphic": {
                "src": "course/en/images/02_behaviors/narrative/1_retail.png",
                "alt": "الصورة الأولى"
            },
            "strapline": "بيع بالتجزئة/تجارة إلكترونية"
        }, {
            "title": "الألعاب",
            "body": "<li>المستويات التي تم إنجازها<li>الإنجازات التي تم إلغاء قفلها<li>النقاط التي تم إنفاقها",
            "_graphic": {
                "src": "course/en/images/02_behaviors/narrative/2_gaming.png",
                "alt": "الصورة الثانية"
            },
            "strapline": "الألعاب"
        }, {
            "title": "الترفيه",
            "body": "<li>إجراءات تشغيل الفيديو<sup>*</sup><li>إجراءات الإضافة إلى قائمة التشغيل<sup>*</sup>",
            "_graphic": {
                "src": "course/en/images/02_behaviors/narrative/3_entertainment.png",
                "alt": "الصورة الثالثة"
            },
            "strapline": "الترفيه"
        }, {
            "title": "التواصل الاجتماعي/المواعدة",
            "body": "<li>إرسال الرسائل<sup>*</sup><li>تحميل الصور<sup>*</sup><li>طلبات الصداقة<sup>*</sup><li>إجراءات مشاهدة الملف الشخصي<sup>*</sup><li>الدعوات<sup>*</sup>",
            "_graphic": {
                "src": "course/en/images/02_behaviors/narrative/4_social.png",
                "alt": "الصورة الثالثة"
            },
            "strapline": "الثالثة هنا!"
        }]
    }, {
        "_id": "c-170",
        "_parentId": "b-170",
        "_type": "component",
        "_component": "text",
        "_classes": "",
        "_layout": "full",
        "title": "",
        "displayTitle": "",
        "body": "<i><sup>*</sup>هذه الأحداث هي أحداث مخصصة تمثل إجراءات فريدة يمكن للأشخاص اتخاذها داخل تطبيقك. يمكنك استخدام الأحداث المخصصة بالإضافة إلى الأحداث المحددة مسبقًا التي نوفرها في مجموعة Facebook SDK. تعرف على كيفية إنشاء أحداث مخصصة لنظام التشغيل <a href='https://developers.facebook.com/docs/app-events/ios#custom' target='new'>iOS</a> ونظام التشغيل <a href='https://developers.facebook.com/docs/app-events/android#custom' target='new'>Android</a>.</i>",
        "instruction": "",
        "_pageLevelProgress": {
            "_isEnabled": false
        }
    }, {
        "_id": "c-181",
        "_parentId": "b-185",
        "_type": "component",
        "_component": "text",
        "_classes": "",
        "_layout": "full",
        "title": "المجموعات النموذجية",
        "displayTitle": "المجموعات النموذجية",
        "body": "لمساعدتك على فهم كيفية استجابة الأشخاص للتغييرات داخل تطبيقك، يمكنك إنشاء المجموعات النموذجية. وتشير المجموعة النموذجية إلى مجموعة الأشخاص الذين أكملوا حدثين معينين داخل تطبيقك خلال عدد محدد من الأيام أو الأسابيع أو الشهور. وتختلف عن المسار الذي يرسم سلسلة الأحداث المؤدية إلى التحويل. ويتم استخدام المجموعات النموذجية لقياس مجموعات الأشخاص الذين أكملوا حدثين بالترتيب الذي تختاره.<br><br><p align='left'><img src='course/en/images/02_behaviors/cohort_chart.png'/></p><br><br>على سبيل المثال، يمكنك رؤية أن نحو 5% من الأشخاص في هذه المجموعة النموذجية، الأشخاص الذين بحثوا عن منتج في التطبيق يوم 26 أغسطس، أضافوا عنصرًا إلى عربة التسوق في نفس يوم تثبيت التطبيق. كما أضاف نحو 2% من الأشخاص في نفس المجموعة النموذجية عنصرًا إلى عربة التسوق في غضون يوم واحد من البحث عن منتج. وهي طريقة رائعة لفهم مدى فعّالية نتائج البحث بمرور الوقت. في الوضع المثال، من المفترض أن تزيد النسبة المئوية للأشخاص الذين يضيفون عناصر إلى عربة التسوق بمرور الوقت مع استمرارك في تنقيح نتائج البحث.",
        "instruction": "",
        "_pageLevelProgress": {
            "_isEnabled": true
        }
        },
        {
        "_id": "c-221",
        "_parentId": "b-225",
        "_type": "component",
        "_component": "text",
        "_classes": "",
        "_layout": "full",
        "title": "المعلومات الديموغرافية",
        "displayTitle": "المعلومات الديموغرافية",
        "body": "الآن بعد أن تعرفت على سلوكيات المستخدمين، قد يكون من المفيد التعرف على مزيد من المعلومات عنهم، مثل العمر والجنس ونمط المعيشة وغيرها الكثير. <i>المعلومات الديموغرافية</i> في Analytics for Apps عبارة عن رؤى جمهور مجمعة وغير محدِدة للهوية عن مجموعات الأشخاص الذين يستخدمون تطبيقك.<br><br>يرى Jasper’s Boutique أن معظم المستخدمين:<br><br><li>بين سن 25 و34.<li>نساء.<li>يعيشون في الولايات المتحدة.<li>يتحدثون الإنجليزية.<li>يتولون مناصب إدارية في وظائفهم.</li>",
        "instruction": "",
        "_pageLevelProgress": {
            "_isEnabled": true
        }
    }, {
        "_id": "c-222",
        "_parentId": "b-225",
        "_type": "component",
        "_component": "graphic",
        "_classes": "",
        "_layout": "full",
        "title": "",
        "displayTitle": "",
        "body": "",
        "instruction": "",
        "_graphic": {
            "alt": "نص بديل",
            "large": "course/en/images/02_behaviors/demographics.png",
            "small": "course/en/images/02_behaviors/demographics.png",
            "attribution": ""
        }
    }, {
        "_id": "c-223",
        "_parentId": "b-225",
        "_type": "component",
        "_component": "text",
        "_classes": "",
        "_layout": "full",
        "title": "",
        "displayTitle": "",
        "body": "يمكنك إضافة المعلومات الديموغرافية إلى الشرائح إذا كنت تريد معرفة معلومات متعمقة عن مجموعة معينة من المستخدمين. على سبيل المثال، يريد المطور التابع لمتجر Jasper’s Boutique معرفة المعلومات الديموغرافية للأشخاص الذين يستخدمون التطبيق على أجهزة iOS. ويمكنه معرفة المعلومات التالية عن مستخدمي التطبيق عبر أجهزة تعمل بنظام iOS:<br><br><li>يشكلون 31.7% من إجمالي مستخدمي التطبيق.<li>معظمهم من النساء.<li>بين سن 25 و34.</li><br><br><p align='left'><img src='course/en/images/02_behaviors/demographics_2.png'/></p><br><br>يمكنك أيضًا معرفة عمر وجنس مجموعات الأشخاص في هذه الشريحة من أسفل الصفحة عند عرض أحداث معينة وعند عرض الإيرادات (ضمن النشاط).<br><br><p align='left'><img src='course/en/images/02_behaviors/demographics_3.png'/></p>",
        "instruction": "",
        "_pageLevelProgress": {
            "_isEnabled": false
        }
    }, {
        "_id": "c-230",
        "_parentId": "b-230",
        "_type": "component",
        "_component": "co-jump",
        "_classes": "color-test",
        "_preLinkBody": "الآن بعد أن تعرفت على المزيد عن الأحداث والمسارات والشرائح والمجموعات النموذجية والمعلومات الديموغرافية، سوف نتناول كيفية عملها جميعًا معًا لمساعدتك في ",
        "_linkBody": "اتخاذ قرارات ذكية",
        "_postLinkBody": " بشأن قياس أداء تطبيقك وتحسينه.",
        "_link": "#/id/co-150",
        "_graphic": "adapt/css/assets/icon_nextPage.png",
        "_pageLevelProgress": {
            "_isEnabled": false
        }
    }, {
        "_id": "c-250",
        "_parentId": "b-250",
        "_type": "component",
        "_component": "text",
        "_classes": "",
        "_layout": "left",
        "title": "الشروع في العمل مع Jasper's Boutique",
        "displayTitle": "",
        "body": "لنتعرف على الطريقة التي يمكنك من خلالها الوقوف على كيفية تفاعل الأشخاص داخل تطبيقك.<br><br>للقيام بذلك، سنستخدم مثال Jasper’s Boutique خلال هذه الدورة التدريبية. يقع مقر متجر البيع بالتجزئة هذا في الولايات المتحدة ويتخصص في بيع ملابس الرجال والنساء. ولديه موقع ويب وتطبيق للهواتف المحمولة ويريد فريق المتجر التعرف على كيفية استخدام Analytics for Apps ليساعدهم على تشجيع تفاعل المستخدمين وجذب مستخدمين جدد، وتحفيزهم على الشراء.<br><br>لقد انتهوا بالفعل من إعداد المتطلبات التي أوضحناها، بما في ذلك إضافة مجموعة Facebook SDK إلى التطبيق وتسجيل أحداث التطبيق، لذا هيا لنتابع رحلة مطور Jasper’s Boutique داخل الأداة.",
        "instruction": "",
        "_pageLevelProgress": {
            "_isEnabled": true
        }
    }, {
        "_id": "c-255",
        "_parentId": "b-250",
        "_type": "component",
        "_component": "graphic",
        "_classes": "",
        "_layout": "right",
        "title": "",
        "displayTitle": "",
        "body": "",
        "instruction": "",
        "_graphic": {
            "alt": "نص بديل",
            "large": "course/en/images/03_actions/jaspers.png",
            "small": "course/en/images/03_actions/jaspers.png",
            "attribution": ""
        }
    }, {
        "_id": "c-260",
        "_parentId": "b-260",
        "_type": "component",
        "_component": "text",
        "_classes": "",
        "_layout": "full",
        "title": "رسم رحلة العميل باستخدام المسارات",
        "displayTitle": "رسم رحلة العميل باستخدام المسارات",
        "body": "يقوم المطورون بإنشاء مسار لرسم دفق الشراء، وقياس أحداث البحث والإضافة إلى عربة التسوق وبدء إتمام الشراء وعمليات الشراء. لأن Analytics for Apps يمكنه قياس الأحداث عبر كل الأجهزة، يمكن للمطور أن يعرض أيضًا الأجهزة التي يستخدمها العملاء عند الشراء عبر تحديد <b>المنصة</b> في قائمة <b>عرض حسب</b> من جهة اليسار.",
        "instruction": "",
        "_pageLevelProgress": {
            "_isEnabled": true
        }
    }, {
        "_id": "c-270",
        "_parentId": "b-270",
        "_type": "component",
        "_component": "graphic",
        "_classes": "",
        "_layout": "full",
        "title": "",
        "displayTitle": "",
        "body": "",
        "instruction": "",
        "_graphic": {
            "alt": "نص بديل",
            "large": "course/en/images/03_actions/conversion_rate_1.png",
            "small": "course/en/images/03_actions/conversion_rate_1.png",
            "attribution": ""
        }
    }, {
        "_id": "c-280",
        "_parentId": "b-280",
        "_type": "component",
        "_component": "text",
        "_classes": "",
        "_layout": "full",
        "title": "",
        "displayTitle": "",
        "body": "أول شيء يظهر للمطور هو معدل التحويل بالأعلى: 17% من الأشخاص الذين بحثوا عن منتج أكملوا في النهاية عملية الشراء. بعد ذلك، قم بإلقاء نظرة على كيفية انتقال المستخدمين خلال المسار؛ ويوضح المخطط وجود انخفاض ملحوظ من الحدث الأول (البحث عن منتج) إلى الحدث الثاني (إضافة المنتجات إلى عربة التسوق). وهو ما يمثل إشارة إلى وجود مشكلة. يوجد شيء يدفع الأشخاص إلى مغادرة الدفق بعد البحث عن المنتج.<br><br>تتمثل المشكلات المحتملة في:<br><li>يجد الأشخاص صعوبة في تحديد عنصر لإضافته إلى عربة التسوق.<li>تحتاج وظيفة البحث داخل التطبيق إلى التحسين لأن المستخدمين لا يجدون منتجات مناسبة في النتائج.</li><br>في أي من الحالتين، لا يساعد التطبيق الأشخاص على الانتقال بسهولة داخل المسار وإتمام عملية الشراء.",
        "instruction": "",
        "_pageLevelProgress": {
            "_isEnabled": false
        }
    }, {
        "_id": "c-290",
        "_parentId": "b-290",
        "_type": "component",
        "_component": "text",
        "_classes": "",
        "_layout": "full",
        "title": "فهم التحويلات باستخدام الشرائح",
        "displayTitle": "فهم التحويلات باستخدام الشرائح",
        "body": "يريد المطورون معرفة معلومات أكثر تساعدهم على حل أسباب التعثر التي تدفع الأشخاص إلى مغادرة دفق الشراء.<br><br>هل يتعلق الأمر بوجود مشكلة في أداء التطبيق على أجهزة بعينها؟ يرى المطور أن معظم الأشخاص يستخدمون أجهزة تعمل بنظام iOS.<br><br>هل المنتجات المتوفرة لا تحظى باهتمام المستخدمين؟ قد يكون السبب أنه على الرغم من تثبيت الأشخاص من كل الأعمار للتطبيق، إلا أن المنتجات التي يقدمونها قد لا تلائم سوى مجموعة عمرية محددة.<br><br>فيما يلي مجموعة من أمثلة الشرائح التي يمكن للمطورين إنشائها لتطبيقها على المسار:<br><br><b>مثال 1</b><br><li>رجال، نساء<li>بين سن 20 و29<li>يعيشون في الولايات المتحدة<li>تنفيذ عملية شراء داخل التطبيق<br><br><b>مثال 2</b><br><li>رجال، نساء<li>يعيشون في أي مكان <i>باستثناء</i> الولايات المتحدة<li>يستخدمون أجهزة تعمل بنظام Android<br><br><b>مثال 3</b><br><li>رجال، نساء<li>بين سن 18 و35<li>يعيشون في الولايات المتحدة</li><br><b>مثال 4</b><br><li>رجال، نساء<li>بين سن 18 و35<li>يعيشون في أي مكان <i>باستثناء</i> الولايات المتحدة<br><br>سيستخدم المطورون مثال 4 لإنشاء شريحة جديدة. يقع مقر متجر التجزئة في الولايات المتحدة ولم يكن يركز جهوده على جذب تفاعل المستخدمين الدوليين. ويريدون التعرف على مزيد من المعلومات عن كيفية تصرف الأشخاص الذين يعيشون خارج الولايات المتحدة عند استخدام التطبيق.",
        "instruction": "",
        "_pageLevelProgress": {
            "_isEnabled": true
        }
    }, {
        "_id": "c-300",
        "_parentId": "b-300",
        "_type": "component",
        "_component": "graphic",
        "_classes": "",
        "_layout": "full",
        "title": "",
        "displayTitle": "",
        "body": "",
        "instruction": "",
        "_graphic": {
            "alt": "نص بديل",
            "large": "course/en/images/03_actions/conversion_rate_2.png",
            "small": "course/en/images/03_actions/conversion_rate_2.png",
            "attribution": ""
        }
    }, {
        "_id": "c-310",
        "_parentId": "b-310",
        "_type": "component",
        "_component": "text",
        "_classes": "",
        "_layout": "full",
        "title": "",
        "displayTitle": "",
        "body": "بعد تحديد شروط إنشاء الشريحة، يظهر للمطور في الجزء العلوي أن هذه المجموعة من الأشخاص حققت معدل تحويل بلغ 43%، أكثر من معدل 17% الذي شهدناه في السابق عند إلقاء نظرة على كل المستخدمين الذين اجتازوا مسار الشراء. ويبدو أن معدل التحويل لدى هذه الشريحة مرتفع، وأن هناك انخفاض أقل بكثير بين البحث والإضافة إلى عربة التسوق مقارنة بالمستخدمين الآخرين الذين أكملوا عملية الشراء.<br><br>لاختبار نظريتهم الجديدة التي تقضي بأن معدل التحويل لدى المستخدمين الدوليين أكبر من نظيره لدى العملاء في الولايات المتحدة، قاموا بتطبيق شريحة جديدة تم إنشاؤها بشروط مثال 3: رجال ونساء في نفس المجموعة العمرية (من 18 إلى 35 عامًا)، ولكن ممن يعيشون في الولايات المتحدة.<br><br>تستحوذ هذه البيانات على قدر كبير من الأهمية تتيح للمطورين فهم طريقة تصرف الأشخاص في المواقع الجغرافية المختلفة.",
        "instruction": "",
        "_pageLevelProgress": {
            "_isEnabled": false
        }
    }, {
        "_id": "c-320",
        "_parentId": "b-320",
        "_type": "component",
        "_component": "graphic",
        "_classes": "",
        "_layout": "full",
        "title": "",
        "displayTitle": "",
        "body": "",
        "instruction": "",
        "_graphic": {
            "alt": "نص بديل",
            "large": "course/en/images/03_actions/conversion_rate_3.png",
            "small": "course/en/images/03_actions/conversion_rate_3.png",
            "attribution": ""
        }
    }, {
        "_id": "c-330",
        "_parentId": "b-330",
        "_type": "component",
        "_component": "text",
        "_classes": "",
        "_layout": "full",
        "title": "",
        "displayTitle": "",
        "body": "في هذه الحالة، يوجد فرق بنسبة 1% فقط في معدل التحويل. ويزيد عدد العملاء الذين يقومون بالشراء (يظهرون على المحور ص) بدرجة كبيرة في الشريحة الأولى، والتي تتألف من عملاء من خارج الولايات المتحدة.<br><br>يدرك المطورون أن الأشخاص في الشريحة الأولى (العملاء الدوليين) هم العملاء الأساسيين لأنه على الرغم من أن معدل الشراء لديهم أعلى بقليل (43% مقابل 42%)، إلا أنهم يشكلون مجموعة أكبر بكثير من المستخدمين ويحققون تقريبًا ضِعف عمليات الشراء التي ينفذها الأشخاص الذين يعيشون في الولايات المتحدة (الشريحة الثانية)",
        "instruction": "",
        "_pageLevelProgress": {
            "_isEnabled": false
        }
    }, {
        "_id": "c-340",
        "_parentId": "b-340",
        "_type": "component",
        "_component": "text",
        "_classes": "",
        "_layout": "full",
        "title": "استخدام المجموعات النموذجية لقياس تغير السلوكيات على مدار الوقت",
        "displayTitle": "استخدام المجموعات النموذجية لقياس تغير السلوكيات على مدار الوقت",
        "body": "باستخدام المعلومات من الشريحة الأولى للعملاء الدوليين وكيفية انتقالهم عبر المسار، يقرر المطورون ترويج الشحن المجاني إلى أي موقع عالمي لفترة محدودة. ويأملون بذلك في سد الفجوة بين بحث الأشخاص عن المنتج وإضافته إلى عربة التسوق. وهي النقطة التي يحدث عندها أكبر فرق بين الأحداث في دفق الشراء. وقد قدم المطورون هذا الخصم في الفترة من 15 إلى 19 مايو.<br><br>لاختبار هذا التغيير الأخير، يقوم المطورون بإنشاء مجموعة نموذجية من الأشخاص الذين بحثوا أولاً عن منتج (أول حدث) ثم أضافوا منتج إلى عربة التسوق (الحدث الثاني).<br><br>يحلل المطورون المجموعة النموذجية في الفترة من 13 مايو (قبل بدء الترويج) إلى 23 مايو (بعد انتهاء الترويج) لمعرفة ما إذا كان الترويج قد أدى إلى زيادة عدد الأشخاص الذين أضافوا المنتجات إلى عربة التسوق.",
        "instruction": "",
        "_pageLevelProgress": {
            "_isEnabled": false
        }
    }, {
        "_id": "c-350",
        "_parentId": "b-350",
        "_type": "component",
        "_component": "graphic",
        "_classes": "",
        "_layout": "full",
        "title": "",
        "displayTitle": "",
        "body": "",
        "instruction": "",
        "_graphic": {
            "alt": "نص بديل",
            "large": "course/en/images/03_actions/behavior_change.png",
            "small": "course/en/images/03_actions/behavior_change.png",
            "attribution": ""
        }
    }, {
        "_id": "c-351",
        "_parentId": "b-350",
        "_type": "component",
        "_component": "text",
        "_classes": "",
        "_layout": "full",
        "title": "",
        "displayTitle": "",
        "body": "يمكنك أن ترى في العمود الثاني أنه قبل الترويج قامت نسبة مئوية أقل من الأشخاص بإكمال الحدث الأول ثم الحدث الثاني، بالترتيب، بفاصل يوم واحد بين الحدثين؛ وبعد طرح الترويج، توجد نسبة مئوية أعلى من الأشخاص الذين أكملوا سلسلة الأحداث بفاصل يوم واحد بين كل حدث.<br><br>ما الذي يعنيه ذلك؟ يوضح ذلك أن عددًا أكبر من الأشخاص أكملوا حدثين (البحث والإضافة إلى عربة التسوق) عندما قدم Jasper’s Boutique شحنًا مجانيًا لكل أنحاء العالم داخل التطبيق. وقد يعني ذلك أن الأشخاص يقبلون على الشراء عند عدم الاضطرار لدفع مصاريف الشحن.<br><br>تلك هي المساعدة التي يمكن أن تقدمها لك المجموعات النموذجية في فهم سلوك مجموعات الأشخاص على مدار الوقت، وخاصة عند إجراء تغييرات على تطبيقك أو عند تقديم تخفيضات خاصة.",
        "instruction": "",
        "_pageLevelProgress": {
            "_isEnabled": false
        }
    }, {
        "_id": "c-360",
        "_parentId": "b-360",
        "_type": "component",
        "_component": "text",
        "_classes": "",
        "_layout": "full",
        "title": "قياس الاحتفاظ بالعملاء والقيمة الدائمة لهم",
        "displayTitle": "قياس الاحتفاظ بالعملاء والقيمة الدائمة لهم",
        "body": "يمكن استخدام المجموعات النموذجية أيضًا لزيادة <i>الاحتفاظ بالعملاء</i> و<i>القيمة الدائمة (LTV)</i> لهم، وهما أهم مؤشرات أداء تطبيقك. ويشير الاحتفاظ بالعملاء إلى عدد الأشخاص الذين يستمرون في التفاعل مع تطبيقك على مدار الوقت. بينما تشير القيمة الدائمة إلى كم يبلغ عدد مرات اتخاذ هؤلاء الأشخاص لإجراءات مهمة (مثل الشراء) وبالتالي تزيد \"قيمتهم\" بالنسبة لك. وتساعدك المجموعات النموذجية على قياس هذين المؤشرين.<br><br><b>قياس الاحتفاظ بالعملاء</b><br>ما مدى قيام الأشخاص بإعادة التفاعل مع تطبيقك بعد تثبيته؟ بعد إقناع الأشخاص بتثبيت تطبيقك، ركز بعدها مباشرة على التأكد من عودتهم مرة بعد أخرى إلى تطبيقك.<br><br>وكما أسلفنا، يقوم Analytics for Apps تلقائيًا بإنشاء مجموعة من الأشخاص الذين قاموا بتشغيل التطبيق بعد تثبيته. وهو ما قد يساعد في الاحتفاظ بالعملاء، ويمكننا الآن إلقاء نظرة على تقارير الاحتفاظ بالعملاء لمتجر Jasper’s Boutique. (يمكن الوصول إليها بالنقر على <b>الاحتفاظ</b> من <b>النشاط</b>.)",
        "instruction": "",
        "_pageLevelProgress": {
            "_isEnabled": true
        }
    }, {
        "_id": "c-370",
        "_parentId": "b-370",
        "_type": "component",
        "_component": "graphic",
        "_classes": "",
        "_layout": "full",
        "title": "",
        "displayTitle": "",
        "body": "",
        "instruction": "",
        "_graphic": {
            "alt": "نص بديل",
            "large": "course/en/images/03_actions/retention.png",
            "small": "course/en/images/03_actions/retention.png",
            "attribution": ""
        }
    }, {
        "_id": "c-380",
        "_parentId": "b-380",
        "_type": "component",
        "_component": "text",
        "_classes": "",
        "_layout": "full",
        "title": "",
        "displayTitle": "",
        "body": "يمكنك ملاحظة أن نحو 20% من الأشخاص الذين ثبتوا التطبيق (الحدث الأول) قد قاموا بتشغيله أيضًا (الحدث الثاني) خلال أول أسبوع. وبمرور الوقت، يواصل الأشخاص في هذه المجموعة النموذجية تشغيل التطبيق، ولكن مع انخفاض طفيف في هذه النسبة المئوية بمرور والوقت. ويشير ذلك إلى أن معدل الاحتفاظ بالعملاء لا يرقى لتطلعات القائمين على المتجر، حيث لم ينجح مطورو متجر Jasper’s Boutique في الحفاظ على عودة الأشخاص إلى التطبيق وتفاعلهم معه.<br><br>لو كان المخطط السابق يخص لعبة، فقد يشير ذلك إلى أن اللعبة لا تثير اهتمام الأشخاص أو أن إكمال مستوياتها صعب للغاية ولذلك لا يشعر الأشخاص بالحماسة للاستمرار في ممارستها. بالنسبة إلى تطبيقات التجارة الإلكترونية، مثل Jasper’s Boutique، قد يشير ذلك إلى أن المنتجات غير مناسبة للأشخاص ولذلك لم يعاودوا فتح التطبيق للتسوق.<br><br>فيما يلي بعض الطرق التي يمكن تجربتها لتحسين الاحتفاظ بالعملاء:<br><br><ol><li>وفِّر للأشخاص ما يحفزهم، كتقديم رمز قسيمة خاص أو الترقي إلى المستوى التالي في اللعبة، لتحفيزهم على تشغيل تطبيقك.<li>وضِّح للأشخاص كيفية استخدام تطبيقك، عبر تقديم عروض توضيحية قصيرة بالفيديو أو عبر تقديم إشعارات تحتوي على نصائح.</ol><br><br><p align='center'><img src='course/en/images/03_actions/tutorial.jpg'/></p>",
        "instruction": "",
        "_pageLevelProgress": {
            "_isEnabled": false
        }
    }, {
        "_id": "c-390",
        "_parentId": "b-390",
        "_type": "component",
        "_component": "text",
        "_classes": "",
        "_layout": "full",
        "title": "القيمة الدائمة",
        "displayTitle": "",
        "body": "<b>قياس القيمة الدائمة</b><br>بمجرد نجاحك في جذب عميل جديد والحفاظ على تفاعله، كيف يمكنك الاستمرار في تشجيعه على العودة؟ ولاء العملاء هو ما يعزز القيمة الدائمة، مع استمرار عودة الأشخاص إلى تطبيقك، فمن المحتمل أن ينفقوا المزيد من الأموال في الشراء من نشاطك التجاري على مدار الوقت. أخيرًا، سترى على الأرجح أن المبلغ الذي ينفقه العملاء داخل تطبيقك يتجاوز تكلفة اكتساب هؤلاء العملاء، أي التكلفة التي تتحملها لجذب انتباههم وتحفيزهم لتثبيت تطبيقك والتفاعل معه.<br><br>لقياس القيمة الدائمة، يقوم المطورون بإنشاء مجموعة نموذجية من الأشخاص الذين ثبتوا تطبيقك ثم نفذوا عملية شراء. ويجب عليهم اختيار القيمة التراكمية عند تحديد نوع المخطط للتعرف على متوسط المبلغ المالي المنفق لكل شخص قام بتثبيت التطبيق على مدار الوقت.",
        "instruction": "",
        "_pageLevelProgress": {
            "_isEnabled": true
        }
    }, {
        "_id": "c-400",
        "_parentId": "b-400",
        "_type": "component",
        "_component": "graphic",
        "_classes": "",
        "_layout": "full",
        "title": "",
        "displayTitle": "",
        "body": "",
        "instruction": "",
        "_graphic": {
            "alt": "نص بديل",
            "large": "course/en/images/03_actions/lifetime_value.png",
            "small": "course/en/images/03_actions/lifetime_value.png",
            "attribution": ""
        }
    }, {
        "_id": "c-410",
        "_parentId": "b-400",
        "_type": "component",
        "_component": "text",
        "_classes": "",
        "_layout": "full",
        "title": "",
        "displayTitle": "",
        "body": "يمكنك ملاحظة ازدياد القيمة لكل مستخدم ضمن هذه المجموعة النموذجية على مدار الوقت. خلال أول أسبوع بعد تثبيت التطبيق، بلغت القيمة لكل عميل نحو 3 دولارات أمريكية؛ وبعد ذلك بأربعة أسابيع، زادت القيمة لأكثر من 4 دولارات لكل عميل. وهو ما يعني أن هذه المجموعة النموذجية مستمرة في تنفيذ عمليات الشراء داخل التطبيق بمرور الوقت، وبالتالي فإن قيمتها الدائمة في ازدياد.<br><br>عندما يعلم المطورون أنهم ينفقون 3 دولارات في المتوسط لاكتساب مستخدم جديد، فهم يحققون بالفعل عائدًا على استثمارهم بعد أول أسبوع.",
        "instruction": "",
        "_pageLevelProgress": {
            "_isEnabled": false
        }
    }, {
        "_id": "c-411",
        "_parentId": "b-410",
        "_type": "component",
        "_component": "text",
        "_classes": "",
        "_layout": "full",
        "title": "إنشاء تقسيمات",
        "displayTitle": "إنشاء تقسيمات",
        "body": "من الميزات الأخرى التي يوفرها Analytics for Apps القدرة على <i>تقسيم</i> حدث معين حسب معلمات يمكن أن يصل عددها إلى ثلاث معلمات. يهتم مطورو Jasper’s Boutique بمعرفة أماكن تواجدهم عملائهم الدوليين. ولأنهم أيقنوا من خلال الشرائح ضرورة إعطاء الأولوية للعملاء الدوليين، فإنهم يتوقون لمعرفة المزيد عن هذه المجموعة من المستخدمين الذين يمثلون قيمة مرتفعة للنشاط التجاري. باستخدام التقسيمات، يمكن للمطورين اختيار عمليات تشغيل التطبيق (حدث) والبلد والمدينة كمعلمتين لهذا الحدث. يمكنك اختيار حتى ثلاث معلمات إذا أردت.",
        "instruction": "",
        "_pageLevelProgress": {
            "_isEnabled": true
        }
    }, {
        "_id": "c-412",
        "_parentId": "b-410",
        "_type": "component",
        "_component": "graphic",
        "_classes": "",
        "_layout": "full",
        "title": "",
        "displayTitle": "",
        "body": "",
        "instruction": "",
        "_graphic": {
            "alt": "نص بديل",
            "large": "course/en/images/03_actions/lifetime_value_chart.png",
            "small": "course/en/images/03_actions/lifetime_value_chart.png",
            "attribution": ""
        }
    }, {
        "_id": "c-413",
        "_parentId": "b-411",
        "_type": "component",
        "_component": "text",
        "_classes": "",
        "_layout": "full",
        "title": "",
        "displayTitle": "",
        "body": "يوضح التقسيم أن معظم المستخدمين الدوليين الذين يقومون بتشغيل التطبيق من البرازيل وألمانيا ومصر والمكسيك. من خلال هذه المعلومات، يمكن للمطورين التفكير في دعم التطبيق للغات متعددة لجعل البحث والتنقل داخل صفحات المنتجات أسهل بالنسبة إلى المستخدمين الدوليين. وهو ما قد يخفض من عدد الأشخاص الذين يتخلفون عن إكمال دفق الشراء.",
        "instruction": "",
        "_pageLevelProgress": {
            "_isEnabled": false
        }
    }, {
        "_id": "c-420",
        "_parentId": "b-420",
        "_type": "component",
        "_component": "co-jump",
        "_classes": "color-test",
        "_preLinkBody": "والآن سنوضح لك كيف يمكنك ",
        "_linkBody": " تنفيذ العملية التسويقية تلقائيًا",
        "_postLinkBody": " باستخدام الإشعارات داخل التطبيق والإشعارات المباشرة.",
        "_link": "#/id/co-200",
        "_graphic": "adapt/css/assets/icon_nextPage.png",
        "_pageLevelProgress": {
            "_isEnabled": false
        }
    }, {
        "_id": "c-500",
        "_parentId": "b-500",
        "_type": "component",
        "_component": "text",
        "_classes": "",
        "_layout": "full",
        "title": "الإشعارات",
        "displayTitle": "",
        "body": "مستخدمًا المعلومات التي حصلت عليها عن كيفية تفاعل الأشخاص مع تطبيقك للهواتف المحمولة، يجب إنشاء إشعارات مباشرة لتتمكن بسهولة من تسويق منتجاتك لشرائح مختلفة من المستخدمين وتتفاعل معهم.<sup>*</sup><br><br><i>شاهد الفيديو التالي لإلقاء نظرة عامة على الفوائد التسويقية التي يمكنك تحصيلها باستخدام الإشعارات المباشرة.</i>",
        "instruction": "",
        "_pageLevelProgress": {
            "_isEnabled": true
        }
    }, {
        "_id": "c-510",
        "_parentId": "b-500",
        "_type": "component",
        "_component": "media",
        "_classes": "",
        "_layout": "full",
        "title": "",
        "displayTitle": "",
        "body": "",
        "instruction": "",
        "_setCompletionOn": "inview",
        "_useClosedCaptions": true,
        "_startLanguage": "ar",
        "_media": {
            "mp4": "course/en/videos/notifications.mp4",
            "poster": "course/en/videos/notifications_poster.png",
            "cc": [{
                "srclang": "ar",
                "src": "course/en/videos/notifications_mp4_eng.ar_AR.srt"
            }]

        },
        "_playerOptions": {
            "poster": "",
            "showPosterWhenEnded": false,
            "defaultVideoWidth": 480,
            "defaultVideoHeight": 270,
            "videoWidth": -1,
            "videoHeight": -1,
            "defaultAudioWidth": 400,
            "defaultAudioHeight": 30,
            "defaultSeekBackwardInterval": "(media.duration * 0.05)",
            "defaultSeekForwardInterval": "(media.duration * 0.05)",
            "audioWidth": -1,
            "audioHeight": -1,
            "startVolume": 0.8,
            "loop": false,
            "autoRewind": true,
            "enableAutosize": true,
            "alwaysShowHours": false,
            "showTimecodeFrameCount": false,
            "framesPerSecond": 25,
            "autosizeProgress": true,
            "alwaysShowControls": false,
            "hideVideoControlsOnLoad": false,
            "clickToPlayPause": true,
            "iPadUseNativeControls": false,
            "iPhoneUseNativeControls": false,
            "AndroidUseNativeControls": false,
            "features": ["playpause", "current", "progress", "duration", "tracks", "volume", "fullscreen"],
            "isVideo": true,
            "enableKeyboard": true,
            "pauseOtherPlayers": true,
            "startLanguage": "ar",
            "tracksText": "mejs.i18n.t('Captions/Subtitles')",
            "hideCaptionsButtonWhenEmpty": true,
            "toggleCaptionsButtonWhenOnlyOne": false,
            "slidesSelector": ""
        }
    }, {
        "_id": "c-515",
        "_parentId": "b-500",
        "_type": "component",
        "_component": "text",
        "_classes": "",
        "_layout": "full",
        "title": "",
        "displayTitle": "",
        "body": "<hr><cite><sup>*</sup>في الوقت الحالي، لا يتوفر استخدام الشرائح التي تستند إلى المعلومات الديموغرافية ومصدر التثبيت في الحملات الإعلانية التي تستخدم إشعارات مباشرة.</cite>",
        "instruction": "",
        "_pageLevelProgress": {
            "_isEnabled": false
        }
    }, {
        "_id": "c-520",
        "_parentId": "b-510",
        "_type": "component",
        "_component": "text",
        "_classes": "",
        "_layout": "full",
        "title": "",
        "displayTitle": "",
        "body": "يتوفر بالحملات الإعلانية التي تستخدم إشعارات مباشرة ما يلي:<br><br><li>نوعان من الإشعارات: إشعارات مباشرة وإشعارات داخل التطبيق<li>نوعان من الحملات الإعلانية: حملات إعلانية لمرة واحدة أو حملات إعلانية مستمرة</li>",
        "instruction": "",
        "_pageLevelProgress": {
            "_isEnabled": false
        }
    }, {
        "_id": "c-521",
        "_parentId": "b-520",
        "_type": "component",
        "_component": "text",
        "_classes": "",
        "_layout": "left",
        "title": "الإشعارات المباشرة",
        "displayTitle": "الإشعارات المباشرة",
        "body": "الإشعارات المباشرة هي إشعارات نصية تظهر عادة على شاشات الهواتف المحمولة أثناء قفلها، أو على شكل بانر أو تنسيق آخر، حسب نوع الجهاز. في الإشعار، يمكنك إضافة رابط لموضع معين لتوجيه الأشخاص إلى جزء محدد داخل تطبيقك.<br><br>على سبيل المثال، يريد مطورو تطبيق Jasper’s Boutique إرسال إشعارات مباشرة عن وصول مجموعة جديدة من المنتجات لتشجيع الأشخاص على استعراض هذه العناصر وشرائها من داخل التطبيق. لذلك فقد وضعوا رابطًا للقسم الذي يتيح للأشخاص عرض المنتجات الجديدة داخل التطبيق.<br><br>ويمكنهم أيضًا استهداف شريحة الأشخاص الذين قاموا بتثبيت التطبيق ولم يقوموا بتشغيله خلال آخر سبعة أيام. وقد يساعد الإشعار في إعادة جذب هؤلاء المستخدمين.",
        "instruction": "",
        "_pageLevelProgress": {
            "_isEnabled": false
        }
    }, {
        "_id": "c-540",
        "_parentId": "b-520",
        "_type": "component",
        "_component": "graphic",
        "_classes": "",
        "_layout": "right",
        "title": "",
        "displayTitle": "",
        "body": "",
        "instruction": "",
        "_graphic": {
            "alt": "نص بديل",
            "large": "course/en/images/04_automate/notifications.jpg",
            "small": "course/en/images/04_automate/notifications.jpg",
            "attribution": ""
        }
    }, {
        "_id": "c-550",
        "_parentId": "b-560",
        "_type": "component",
        "_component": "graphic",
        "_classes": "",
        "_layout": "right",
        "title": "",
        "displayTitle": "",
        "body": "",
        "instruction": "",
        "_graphic": {
            "alt": "نص بديل",
            "large": "course/en/images/04_automate/in_app_notifications.jpg",
            "small": "course/en/images/04_automate/in_app_notifications.jpg",
            "attribution": ""
        }
    }, {
        "_id": "c-560",
        "_parentId": "b-560",
        "_type": "component",
        "_component": "text",
        "_classes": "",
        "_layout": "left",
        "title": "الإشعارات داخل التطبيق",
        "displayTitle": "الإشعارات داخل التطبيق",
        "body": "إذا كنت تريد إنشاء رسائل تظهر مباشرة أثناء تفاعل المستخدم داخل التطبيق، يمكنك استخدام ميزة الإشعارات داخل التطبيق. ويمكن أن تحتوي هذه الإشعارات على صور عادية أو متحركة أو رموز تعبيرية أو غيرها من الوسائط الغنية. ويمكن تخصيصها بالكامل كما أنها مفتوحة المصدر ومتاحة على <a href='https://github.com/facebook/FBNotifications' target='new'>GitHub</a>.",
        "instruction": "",
        "_pageLevelProgress": {
            "_isEnabled": true
        }
    }, {
        "_id": "c-570",
        "_parentId": "b-570",
        "_type": "component",
        "_component": "text",
        "_classes": "",
        "_layout": "full",
        "title": "حملة إعلانية لمرة واحدة",
        "displayTitle": "حملة إعلانية لمرة واحدة",
        "body": "إذا كنت تريد إرسال إشعار يظهر لمرة واحدة أمام الأشخاص الذين ينتمون إلى شريحة معينة وفي وقت معين، فقم بإنشاء حملة إعلانية لمرة واحدة. تكون الحملات الإعلانية لمرة واحدة مناسبة بشكل خاص في مواسم العطلات أو مع العروض المؤقتة، أو لتسليط الضوء على طرح ميزات جديدة.<br><br>على سبيل المثال، قام تطبيق ألعاب بتشغيل حملة إعلانية لمرة واحدة ليقدم للاعبين مكافأة عبارة عن \"توسع قرصنة مجاني\" بعد اجتياز المستوى 6 مباشرة.",
        "instruction": "",
        "_pageLevelProgress": {
            "_isEnabled": true
        }
    }, {
        "_id": "c-580",
        "_parentId": "b-580",
        "_type": "component",
        "_component": "graphic",
        "_classes": "",
        "_layout": "full",
        "title": "",
        "displayTitle": "",
        "body": "",
        "instruction": "",
        "_graphic": {
            "alt": "نص بديل",
            "large": "course/en/images/04_automate/pirate_campaign.jpg",
            "small": "course/en/images/04_automate/pirate_campaign.jpg",
            "attribution": ""
        }
    }, {
        "_id": "c-590",
        "_parentId": "b-580",
        "_type": "component",
        "_component": "text",
        "_classes": "",
        "_layout": "full",
        "title": "",
        "displayTitle": "",
        "body": "للقيام بذلك، يقوم تطبيق الألعاب بإنشاء شريحة من الأشخاص استنادًا إلى حدث \"المستوى الذي تم تحقيقه\" مع تحديد \"6\" كمعلمة. بعدها يقوم مطورو التطبيق بإنشاء حملة إعلانية لمرة واحدة يتم إرسالها إلى جميع الأشخاص في هذه الشريحة. ومع ممارسة الأشخاص للعبة والوصول إلى المستوى 7، يصلون على الفور إلى شريحة الأشخاص الذين حققوا المستوى 6، وبالتالي يظهر لهم الإشعار المباشر ليخبرهم بالمكافأة. وهي طريقة رائعة لتشجيع التفاعل وزيادة الوقت المستغرق في استخدام التطبيق.<br><br>ويمثل هذا النوع من الإشعارات أفضل خيار للحملات الإعلانية لمرة واحدة لعدم جدوى تكرار عرض هذا الإشعار للأشخاص أكثر من مرة، لأنهم يجتازون المستوى 6 مرة واحدة ولأن العرض محدود.",
        "instruction": "",
        "_pageLevelProgress": {
            "_isEnabled": false
        }
    }, {
        "_id": "c-591",
        "_parentId": "b-590",
        "_type": "component",
        "_component": "text",
        "_classes": "",
        "_layout": "full",
        "title": "الحملات الإعلانية المستمرة",
        "displayTitle": "الحملات الإعلانية المستمرة",
        "body": "إذا كنت تريد إرسال إشعارات باستمرار، يمكنك إنشاء حملات إعلانية مستمرة. يمكنك تحديد نوعين من المعايير لتحدد كيفية إرسال هذه الحملات الإعلانية:<br><ol><li>الشروط التي تضم الأشخاص إلى جمهور الحملة الإعلانية<li>الشروط التي تستبعد الأشخاص من جمهور الحملة الإعلانية (اختياري)</ol><br><br>على سبيل المثال، يريد المطورون:<br><br><li>إرسال إشعارات داخل التطبيق.<li>ترويج خصم خاص.<li>إرسال الإشعار إلى الأشخاص الذين اشتروا منتجات بقيمة 250 دولارًا داخل التطبيق خلال آخر 7 أيام.<br><br>تتحدد شروط تضمين الأشخاص في الجمهور بأي شخص ينفذ عملية شراء بقيمة 250 دولار على الأقل خلال تلك الفترة. ويتحدد شرط استبعاد الأشخاص من الجمهور بأي شخص ينفق 249 دولار أو أقل خلال سبعة أيام.",
        "instruction": "",
        "_pageLevelProgress": {
            "_isEnabled": true
        }
    }, {
        "_id": "c-592",
        "_parentId": "b-590",
        "_type": "component",
        "_component": "graphic",
        "_classes": "",
        "_layout": "full",
        "title": "",
        "displayTitle": "",
        "body": "",
        "instruction": "",
        "_graphic": {
            "alt": "نص بديل",
            "large": "course/en/images/04_automate/continuous_campaign.jpg",
            "small": "course/en/images/04_automate/continuous_campaign.jpg",
            "attribution": ""
        }
    }, {
        "_id": "c-593",
        "_parentId": "b-600",
        "_type": "component",
        "_component": "text",
        "_classes": "",
        "_layout": "full",
        "title": "",
        "displayTitle": "",
        "body": "في السيناريو السابق، لن يتلقى المتسوق الإشعار داخل التطبيق إلا بحلول 3 يونيو، عندما يصل إلى الحد الأدنى البالغ 250 دولار.",
        "instruction": "",
        "_pageLevelProgress": {
            "_isEnabled": false
        }
    }, {
        "_id": "c-600",
        "_parentId": "b-600",
        "_type": "component",
        "_component": "text",
        "_classes": "",
        "_layout": "left",
        "title": "",
        "displayTitle": "",
        "body": "ولأن هذه الحملة الإعلانية مستمرة، فسيتلقى الأشخاص هذا الإشعار متى انطبقت عليهم الشروط وأصبحوا ضمن الجمهور. يعني ذلك أن المتسوق المذكور بالأعلى سوف يتلقى نفس الإشعار، الذي يحتوي على الخصم الخاص، عدة مرات، وكلما قام بتنفيذ مشتريات كبيرة يتحقق بها شرط الحد الأدنى البالغ 250 دولارًا أمريكيًا، كما حدث في 3 أغسطس<br><br>وهي طريقة رائعة يكافئ بها تجار التجزئة عملائهم المخلصين.",
        "instruction": "",
        "_pageLevelProgress": {
            "_isEnabled": false
        }
    }, {
        "_id": "c-610",
        "_parentId": "b-600",
        "_type": "component",
        "_component": "graphic",
        "_classes": "",
        "_layout": "right",
        "title": "",
        "displayTitle": "",
        "body": "",
        "instruction": "",
        "_graphic": {
            "alt": "نص بديل",
            "large": "course/en/images/04_automate/continuous_campaign_2.jpg",
            "small": "course/en/images/04_automate/continuous_campaign_2.jpg",
            "attribution": ""
        }
    }, {
        "_id": "c-630",
        "_parentId": "b-630",
        "_type": "component",
        "_component": "co-jump",
        "_classes": "color-test",
        "_preLinkBody": "والآن سنوضح لك كيف يمكنك ",
        "_linkBody": " زيادة عدد جمهورك وتشجيعه على التفاعل",
        "_postLinkBody": ".",
        "_link": "#/id/co-250",
        "_graphic": "adapt/css/assets/icon_nextPage.png",
        "_pageLevelProgress": {
            "_isEnabled": false
        }
    }, {
        "_id": "c-700",
        "_parentId": "b-700",
        "_type": "component",
        "_component": "text",
        "_classes": "",
        "_layout": "full",
        "title": "الاستهداف",
        "displayTitle": "",
        "body": "حتى الآن، تعرفت على كيفية استخدام Analytics for Apps بسهولة للتعرف على سلوكيات المستخدمين الحاليين لتطبيقك. الآن سوف نعرض لك كيفية استخدام الأداة لتساعدك في إنشاء حملات إعلانية لا تعيد جذب تفاعل عملائك الحاليين فحسب، بل تساعد في العثور أيضًا على عملاء جدد يشبهون عملائك الأعلى قيمة.<br><br>يمكنك تنفيذ ذلك عبر إنشاء:<br><br><li>إعلانات تثبيت تطبيق الهواتف المحمولة التي تستهدف مستخدمين جدد باستخدام ميزة الجماهير المشابهة.<li>إعلانات التفاعل مع تطبيق الهواتف المحمولة التي تستهدف المستخدمين الحاليين باستخدام ميزة الجماهير المخصصة.",
        "instruction": "",
        "_pageLevelProgress": {
            "_isEnabled": true
        }
    }, {
        "_id": "c-710",
        "_parentId": "b-710",
        "_type": "component",
        "_component": "canvas-animation",
        "_classes": "",
        "_layout": "right",
        "title": "",
        "displayTitle": "",
        "animationName": "Icon_animation_stack",
        "animation": "course/en/animations/icon_animation_stack/icon_animation_stack.js",
        "body": "<div id='icon_animation_stack'></div>",
        "_resources": {
           "textStyle_1":{"font":"15px freight-sans-pro","fill": "#908f8f","wordWrap": false,"wordWrapWidth":200,"align":"center","lineSpacing": -10 },
            "icon_1":"course/en/animations/icon_animation_stack/stack_graphic_1.png",
            "icon_2":"course/en/animations/icon_animation_stack/stack_graphic_2.png",
            "icon_3":"course/en/animations/icon_animation_stack/stack_graphic_3.png",
            "icon_4":"course/en/animations/icon_animation_stack/stack_graphic_4a.png",
            "arrow":"course/en/animations/icon_animation_stack/arrow.png",
            "text_1":"جمهور مخصص",
            "text_2":"جمهور مشابه"
        },
        "instruction": "",
        "_pageLevelProgress": {
            "_isEnabled": false
        }
    }, {
        "_id": "c-715",
        "_parentId": "b-710",
        "_type": "component",
        "_component": "text",
        "_classes": "",
        "_layout": "left",
        "title": "العثور على مستخدمين جدد",
        "displayTitle": "العثور على مستخدمين جدد",
        "body": "باستخدام هدف تثبيت تطبيق الهواتف المحمولة وميزة الجماهير المشابهة، يساعدك فيسبوك في الوصول إلى الأشخاص الأكثر احتمالاً أن يثبتوا تطبيقك ويتفاعلوا معه.<br><br>للقيام بذلك، قم بإنشاء حملة إعلانية لتثبيت التطبيق في Power Editor أو باستخدام أداة إنشاء الإعلانات في مدير الإعلانات. عند اختيار جمهورك من أجل الاستهداف، حدد <b>الجماهير المخصصة</b> و<b>نوع النشاط</b>. سيتيح لك ذلك إنشاء جمهور من الأشخاص الذين اتخذوا إجراءات معينة داخل تطبيقك، مثل الوصول إلى مستوى معين في اللعبة، أو إضافة عناصر إلى عربة التسوق وغيرها الكثير من الإجراءات.<br><br>بمجرد إنشاء جمهور مخصص من تطبيقك، يمكنك إنشاء جمهور مشابه لاستهداف الأشخاص الذين \"يشبهون\" عملائك الحاليين. يمكن لفيسبوك إنشاء جمهور مشابه بالعثور على الأشخاص الذين يشاركون سمات مشابهة للأشخاص ضمن جمهورك المخصص.",
        "instruction": "",
        "_pageLevelProgress": {
            "_isEnabled": true
        }
    }, {
        "_id": "c-720",
        "_parentId": "b-720",
        "_type": "component",
        "_component": "text",
        "_classes": "",
        "_layout": "full",
        "title": "",
        "displayTitle": "",
        "body": "عندما يشاهد الأشخاص في جمهورك المشابه إعلانك، يمكنهم النقر على الزر <b>تثبيت التطبيق</b> ليتم تحويلهم تلقائيًا إلى متجر تطبيقات App Store أو Google Play (تبعًا لنوع نظام التشغيل بأجهزتهم) حيث يمكنهم تنزيل تطبيقك.<br><br><p align='center'><img src='course/en/images/05_grow/install_app.jpg'/></p>",
        "instruction": "",
        "_pageLevelProgress": {
            "_isEnabled": false
        }
    }, {
        "_id": "c-725",
        "_parentId": "b-730",
        "_type": "component",
        "_component": "text",
        "_classes": "",
        "_layout": "full",
        "title": "إعادة جذب المستخدمين الحاليين",
        "displayTitle": "إعادة جذب المستخدمين الحاليين",
        "body": "إذا وجدت أن الأشخاص توقفوا عن تشغيل التطبيق أو تنفيذ عمليات الشراء، يمكنك إنشاء إعلان للتفاعل مع تطبيق الهواتف المحمولة وتوجيهه تحديدًا إلى هذه الشرائح.<br><br>للقيام بذلك، قم بإنشاء إعلان للتفاعل مع تطبيق الهواتف المحمولة في Power Editor أو باستخدام أداة إنشاء الإعلانات. عند اختيار جمهورك من أجل الاستهداف، حدد <b>الجماهير المخصصة</b> و<b>نوع النشاط</b>. يتيح لك ذلك إنشاء جمهور من الأشخاص الذين تراجعت وتيرة استخدامهم للتطبيق (على سبيل المثال: الأشخاص الذين لم يفتحوا التطبيق آخر شهر) أو الذين لم يقوموا بالشراء.<br><br>نوصي بإنشاء مجموعتين إعلانيتين مختلفتين إذا كنت تريد استهداف جماهير محددة برسالة محددة. باستخدام المثال أعلاه، قد يكون الأكثر فعّالية أن يتم:<br><br><li>الجمهور 1: استهداف الأشخاص الذين لما ينفذوا عملية شراء + تقديم خصم خاص 10% + استخدام <b>تسوق الآن</b> كدعوة لاتخاذ إجراء<br><br><li>الجمهور 2: استهداف الأشخاص الذين لم يقوموا بتشغيل التطبيق مؤخرًا + استخدام الدعوة لاتخاذ إجراء <b>استخدام التطبيق</b> لأن الهدف هو إعادة جذب تفاعلهم مع التطبيق وليس الشراء.",
        "instruction": "",
        "_pageLevelProgress": {
            "_isEnabled": true
        }
    }, {
        "_id": "c-740",
        "_parentId": "b-730",
        "_type": "component",
        "_component": "graphic",
        "_classes": "",
        "_layout": "left",
        "title": "",
        "displayTitle": "",
        "body": "",
        "instruction": "",
        "_graphic": {
            "alt": "نص بديل",
            "large": "course/en/images/05_grow/shop_now.png",
            "small": "course/en/images/05_grow/shop_now.png",
            "attribution": ""
        }
    }, {
        "_id": "c-745",
        "_parentId": "b-730",
        "_type": "component",
        "_component": "graphic",
        "_classes": "",
        "_layout": "right",
        "title": "",
        "displayTitle": "",
        "body": "",
        "instruction": "",
        "_graphic": {
            "alt": "نص بديل",
            "large": "course/en/images/05_grow/use_app.png",
            "small": "course/en/images/05_grow/use_app.png",
            "attribution": ""
        }
    }, {
        "_id": "c-750",
        "_parentId": "b-740",
        "_type": "component",
        "_component": "co-jump",
        "_classes": "color-test",
        "_preLinkBody": "بعد ذلك، لنرى كيف يمكنك وضع كل الأمور التي تعلمتها حتى الآن موضع التنفيذ! لذا سوف ننتقل الآن إلى ",
        "_linkBody": " دليل تفصيلي",
        "_postLinkBody": " للخطوات اللازمة.",
        "_link": "#/id/co-300",
        "_graphic": "adapt/css/assets/icon_nextPage.png",
        "_pageLevelProgress": {
            "_isEnabled": false
        }
    }, {
        "_id": "c-800",
        "_parentId": "b-800",
        "_type": "component",
        "_component": "text",
        "_classes": "",
        "_layout": "full",
        "title": "",
        "displayTitle": "",
        "body": "الآن بعد أن تعرفت على مزايا Analytics for Apps، حان الوقت للتعرف على كيفية استخدام بعض ميزاتنا الأساسية. سوف نتناول خطوات:<br><br><li>إنشاء مسار.<li>إنشاء شريحة.<li>إنشاء مجموعة نموذجية.<li>إنشاء تقسيم.<li>إنشاء إشعارات مباشرة وإشعارات داخل التطبيق، وحملات إعلانية لمرة واحدة وحملات إعلانية مستمرة.</li><br><br><i>شاهد كل مقطع من مقاطع الفيديو التالية للتعرف على المزيد.</i>",
        "instruction": "",
        "_pageLevelProgress": {
            "_isEnabled": false
        }
    }, {
        "_id": "c-820",
        "_parentId": "b-810",
        "_type": "component",
        "_component": "media",
        "_classes": "",
        "_layout": "full",
        "title": "إنشاء مسار",
        "displayTitle": "إنشاء مسار",
        "body": "",
        "instruction": "",
        "_setCompletionOn": "inview",
        "_useClosedCaptions": true,
        "_startLanguage": "ar",
        "_media": {
            "mp4": "course/en/videos/funnels/funnels.mp4",
            "poster": "course/en/videos/funnels/funnels.jpg",
            "cc": [{
                "srclang": "ar",
                "src": "course/en/videos/funnels/srt/funnels.ar_AR.srt"
           
            }]
        },
        "_transcript": {
            "_setCompletionOnView": false,
            "_inlineTranscript": false,
            "_externalTranscript": false,
            "inlineTranscriptButton": "النص",
            "inlineTranscriptCloseButton": "إخفاء النص",
            "inlineTranscriptBody": "من المفترض أن يظهر النص الأساسي هنا",
            "transcriptLinkButton": "النص",
            "transcriptLink": ""
        },
        "_playerOptions": {
            "poster": "",
            "showPosterWhenEnded": false,
            "defaultVideoWidth": 480,
            "defaultVideoHeight": 270,
            "videoWidth": -1,
            "videoHeight": -1,
            "defaultAudioWidth": 400,
            "defaultAudioHeight": 30,
            "defaultSeekBackwardInterval": "(media.duration * 0.05)",
            "defaultSeekForwardInterval": "(media.duration * 0.05)",
            "audioWidth": -1,
            "audioHeight": -1,
            "startVolume": 0.8,
            "loop": false,
            "autoRewind": true,
            "enableAutosize": true,
            "alwaysShowHours": false,
            "showTimecodeFrameCount": false,
            "framesPerSecond": 25,
            "autosizeProgress": true,
            "alwaysShowControls": false,
            "hideVideoControlsOnLoad": false,
            "clickToPlayPause": true,
            "iPadUseNativeControls": false,
            "iPhoneUseNativeControls": false,
            "AndroidUseNativeControls": false,
            "features": ["playpause", "current", "progress", "duration", "tracks", "volume", "fullscreen"],
            "isVideo": true,
            "enableKeyboard": true,
            "pauseOtherPlayers": true,
			"startLanguage": "ar",
            "tracksText": "mejs.i18n.t('Captions/Subtitles')",
            "hideCaptionsButtonWhenEmpty": true,
            "toggleCaptionsButtonWhenOnlyOne": false,
            "slidesSelector": ""
        }
    }, {
        "_id": "c-821",
        "_parentId": "b-820",
        "_type": "component",
        "_component": "media",
        "_classes": "",
        "_layout": "full",
        "title": "إنشاء شريحة",
        "displayTitle": "إنشاء شريحة",
        "body": "",
        "instruction": "",
        "_setCompletionOn": "inview",
        "_useClosedCaptions": true,
        "_startLanguage": "ar",
        "_media": {
            "mp4": "course/en/videos/segment/segment.mp4",
            "poster": "course/en/videos/segment/segment.jpg",
            "cc": [{
                "srclang": "ar",
                "src": "course/en/videos/segment/srt/segment.ar_AR.srt"
            }]
        },
        "_transcript": {
            "_setCompletionOnView": false,
            "_inlineTranscript": false,
            "_externalTranscript": false,
            "inlineTranscriptButton": "النص",
            "inlineTranscriptCloseButton": "إخفاء النص",
            "inlineTranscriptBody": "من المفترض أن يظهر النص الأساسي هنا",
            "transcriptLinkButton": "النص",
            "transcriptLink": ""
        },
        "_playerOptions": {
            "poster": "",
            "showPosterWhenEnded": false,
            "defaultVideoWidth": 480,
            "defaultVideoHeight": 270,
            "videoWidth": -1,
            "videoHeight": -1,
            "defaultAudioWidth": 400,
            "defaultAudioHeight": 30,
            "defaultSeekBackwardInterval": "(media.duration * 0.05)",
            "defaultSeekForwardInterval": "(media.duration * 0.05)",
            "audioWidth": -1,
            "audioHeight": -1,
            "startVolume": 0.8,
            "loop": false,
            "autoRewind": true,
            "enableAutosize": true,
            "alwaysShowHours": false,
            "showTimecodeFrameCount": false,
            "framesPerSecond": 25,
            "autosizeProgress": true,
            "alwaysShowControls": false,
            "hideVideoControlsOnLoad": false,
            "clickToPlayPause": true,
            "iPadUseNativeControls": false,
            "iPhoneUseNativeControls": false,
            "AndroidUseNativeControls": false,
            "features": ["playpause", "current", "progress", "duration", "tracks", "volume", "fullscreen"],
            "isVideo": true,
            "enableKeyboard": true,
            "pauseOtherPlayers": true,
            "startLanguage": "ar",
            "tracksText": "mejs.i18n.t('Captions/Subtitles')",
            "hideCaptionsButtonWhenEmpty": true,
            "toggleCaptionsButtonWhenOnlyOne": false,
            "slidesSelector": ""
        }
    }, {
        "_id": "c-840",
        "_parentId": "b-830",
        "_type": "component",
        "_component": "media",
        "_classes": "",
        "_layout": "full",
        "title": "إنشاء مجموعة نموذجية",
        "displayTitle": "إنشاء مجموعة نموذجية",
        "body": "",
        "instruction": "",
        "_setCompletionOn": "inview",
        "_useClosedCaptions": true,
        "_startLanguage": "ar",
        "_media": {
            "mp4": "course/en/videos/cohort/cohort.mp4",
            "poster": "course/en/videos/cohort/cohort.png",
            "cc": [{
                "srclang": "ar",
                "src": "course/en/videos/cohort/srt/cohort_eng.ar_AR.srt"
            }]
        },
        "_transcript": {
            "_setCompletionOnView": false,
            "_inlineTranscript": false,
            "_externalTranscript": false,
            "inlineTranscriptButton": "النص",
            "inlineTranscriptCloseButton": "إخفاء النص",
            "inlineTranscriptBody": "من المفترض أن يظهر النص الأساسي هنا",
            "transcriptLinkButton": "النص",
            "transcriptLink": ""
        },
        "_playerOptions": {
            "poster": "",
            "showPosterWhenEnded": false,
            "defaultVideoWidth": 480,
            "defaultVideoHeight": 270,
            "videoWidth": -1,
            "videoHeight": -1,
            "defaultAudioWidth": 400,
            "defaultAudioHeight": 30,
            "defaultSeekBackwardInterval": "(media.duration * 0.05)",
            "defaultSeekForwardInterval": "(media.duration * 0.05)",
            "audioWidth": -1,
            "audioHeight": -1,
            "startVolume": 0.8,
            "loop": false,
            "autoRewind": true,
            "enableAutosize": true,
            "alwaysShowHours": false,
            "showTimecodeFrameCount": false,
            "framesPerSecond": 25,
            "autosizeProgress": true,
            "alwaysShowControls": false,
            "hideVideoControlsOnLoad": false,
            "clickToPlayPause": true,
            "iPadUseNativeControls": false,
            "iPhoneUseNativeControls": false,
            "AndroidUseNativeControls": false,
            "features": ["playpause", "current", "progress", "duration", "tracks", "volume", "fullscreen"],
            "isVideo": true,
            "enableKeyboard": true,
            "pauseOtherPlayers": true,
            "startLanguage": "ar",
            "tracksText": "mejs.i18n.t('Captions/Subtitles')",
            "hideCaptionsButtonWhenEmpty": true,
            "toggleCaptionsButtonWhenOnlyOne": false,
            "slidesSelector": ""
        }
    }, {
        "_id": "c-850",
        "_parentId": "b-840",
        "_type": "component",
        "_component": "media",
        "_classes": "",
        "_layout": "full",
        "title": "إنشاء تقسيم",
        "displayTitle": "إنشاء تقسيم",
        "body": "",
        "instruction": "",
        "_setCompletionOn": "inview",
        "_useClosedCaptions": true,
        "_startLanguage": "ar",
        "_media": {
            "mp4": "course/en/videos/breakdown/breakdown.mp4",
            "poster": "course/en/videos/breakdown/breakdown.png",
            "cc": [{
                "srclang": "ar",
                "src": "course/en/videos/breakdown/breakdown_eng.ar_AR.srt"
            }]

        },
        "_transcript": {
            "_setCompletionOnView": false,
            "_inlineTranscript": false,
            "_externalTranscript": false,
            "inlineTranscriptButton": "النص",
            "inlineTranscriptCloseButton": "إخفاء النص",
            "inlineTranscriptBody": "من المفترض أن يظهر النص الأساسي هنا",
            "transcriptLinkButton": "النص",
            "transcriptLink": ""
        },
        "_playerOptions": {
            "poster": "",
            "showPosterWhenEnded": false,
            "defaultVideoWidth": 480,
            "defaultVideoHeight": 270,
            "videoWidth": -1,
            "videoHeight": -1,
            "defaultAudioWidth": 400,
            "defaultAudioHeight": 30,
            "defaultSeekBackwardInterval": "(media.duration * 0.05)",
            "defaultSeekForwardInterval": "(media.duration * 0.05)",
            "audioWidth": -1,
            "audioHeight": -1,
            "startVolume": 0.8,
            "loop": false,
            "autoRewind": true,
            "enableAutosize": true,
            "alwaysShowHours": false,
            "showTimecodeFrameCount": false,
            "framesPerSecond": 25,
            "autosizeProgress": true,
            "alwaysShowControls": false,
            "hideVideoControlsOnLoad": false,
            "clickToPlayPause": true,
            "iPadUseNativeControls": false,
            "iPhoneUseNativeControls": false,
            "AndroidUseNativeControls": false,
            "features": ["playpause", "current", "progress", "duration", "tracks", "volume", "fullscreen"],
            "isVideo": true,
            "enableKeyboard": true,
            "pauseOtherPlayers": true,
            "startLanguage": "ar",
            "tracksText": "mejs.i18n.t('Captions/Subtitles')",
            "hideCaptionsButtonWhenEmpty": true,
            "toggleCaptionsButtonWhenOnlyOne": false,
            "slidesSelector": ""
        }
    }, {
        "_id": "c-851",
        "_parentId": "b-850",
        "_type": "component",
        "_component": "text",
        "_classes": "",
        "_layout": "full",
        "title": "إنشاء حملة إعلانية تستخدم إشعارات مباشرة",
        "displayTitle": "إنشاء حملة إعلانية تستخدم إشعارات مباشرة",
        "body": "<a href='https://www.facebook.com/help/analytics/484268408433790' target='new'>تعرف</a> على كيفية إنشاء حملات إعلانية تستخدم إشعارات مباشرة أو تستخدم إشعارات داخل التطبيق.",
        "instruction": "",
        "_pageLevelProgress": {
            "_isEnabled": true
        }
    }, {
        "_id": "c-860",
        "_parentId": "b-860",
        "_type": "component",
        "_component": "co-jump",
        "_classes": "color-test",
        "_preLinkBody": "الآن حان الوقت لتلخيص محتوى الدورة التدريبية! نحن الآن على موعد مع ",
        "_linkBody": " اختبار مستوى المعرفة",
        "_postLinkBody": ".",
        "_link": "#/id/co-350",
        "_graphic": "adapt/css/assets/icon_nextPage.png",
        "_pageLevelProgress": {
            "_isEnabled": false
        }
    }, {
        "_id": "c-900",
        "_parentId": "b-900",
        "_type": "component",
        "_component": "mcq",
        "_classes": "",
        "_layout": "full",
        "_attempts": 1,
        "_shouldDisplayAttempts": false,
        "_questionWeight": 1,
        "_isRandom": false,
        "_selectable": 3,
        "_canShowModelAnswer": true,
        "_setCompletionOn":"inview",
        "_recordInteraction": true,
        "title": "سؤال 1 من 4",
        "displayTitle": "سؤال 1 من 4",
        "body": "أي مما يلي يعتبر من متطلبات استخدام Facebook Analytics for Apps؟ (اختر ثلاثة)",
        "instruction": "",
        "_items": [{
            "text": "بيكسل فيسبوك",
            "_shouldBeSelected": false
        }, {
            "text": "Facebook SDK",
            "_shouldBeSelected": true
        }, {
            "text": "أحداث التطبيق",
            "_shouldBeSelected": true
        }, {
            "text": "الأحداث القياسية",
            "_shouldBeSelected": false
        }, {
            "text": "حساب مطور فيسبوك",
            "_shouldBeSelected": true

        }],
        "_feedback": {
            "correct": "أحسنت! لاستخدام Facebook Analytics for Apps، يجب على الأنشطة التجارية تنفيذ مجموعة Facebook SDK، وتسجيل أحداث التطبيق، وإنشاء حساب مطور فيسبوك.",
            "_incorrect": {
                "notFinal": "",
                "final": "عذرًا، إجابة خاطئة. لاستخدام Facebook Analytics for Apps، يجب على الأنشطة التجارية تنفيذ مجموعة Facebook SDK، وتسجيل أحداث التطبيق، وإنشاء حساب مطور فيسبوك."
            },
            "_partlyCorrect": {
                "notFinal": "",
                "final": "لاستخدام Facebook Analytics for Apps، يجب على الأنشطة التجارية تنفيذ مجموعة Facebook SDK، وتسجيل أحداث التطبيق، وإنشاء حساب مطور فيسبوك."
            }
        },
        "_buttons": {
            "_submit": {
                "buttonText": "إرسال",
                "ariaLabel": "حدد هنا لإرسال إجابتك."
            },
            "_reset": {
                "buttonText": "إعادة تعيين",
                "ariaLabel": ""
            },
            "_showCorrectAnswer": {
                "buttonText": "الإجابة الصحيحة",
                "ariaLabel": ""
            },
            "_hideCorrectAnswer": {
                "buttonText": "إجابتي",
                "ariaLabel": ""
            },
            "_showFeedback": {
                "buttonText": "إظهار الملاحظات",
                "ariaLabel": ""
            },
            "remainingAttemptsText": "محاولات متبقية",
            "remainingAttemptText": "محاولة أخيرة"
        },
        "_pageLevelProgress": {
            "_isEnabled": true
        }
    }, {
        "_id": "c-910",
        "_parentId": "b-910",
        "_type": "component",
        "_component": "mcq",
        "_classes": "",
        "_layout": "full",
        "_attempts": 1,
        "_shouldDisplayAttempts": false,
        "_questionWeight": 1,
        "_isRandom": false,
        "_selectable": 1,
        "_canShowModelAnswer": true,
        "_recordInteraction": true,
        "_setCompletionOn":"inview",
        "title": "سؤال 2 من 4",
        "displayTitle": "سؤال 2 من 4",
        "body": "أي من العبارات التالية يصف الشريحة بشكل أفضل؟",
        "instruction": "",
        "_items": [{
            "text": "سلسلة من الأحداث التي يقيسها النشاط التجاري",
            "_shouldBeSelected": false
        }, {
            "text": "مجموعة من الأشخاص الذين أكملوا حدثين محددين في أحد التطبيقات خلال فترة زمنية محددة",
            "_shouldBeSelected": false
        }, {
            "text": "مستخدمون تم تجميعهم استنادًا إلى سمات معينة",
            "_shouldBeSelected": true
        }, {
            "text": "رؤى جمهور مجمعة وغير محدِدة للهوية لمجموعة مستخدمي تطبيق نشاطك التجاري",
            "_shouldBeSelected": false
        }],
        "_feedback": {
            "correct": "أحسنت! باستخدام الشرائح، يمكنك تجميع المستخدمين استنادًا إلى سمات بعينها، مثل المعلومات الديموغرافية أو الإجراءات يتم اتخاذها والأجهزة المستخدمة.",
            "_incorrect": {
                "notFinal": "",
                "final": "عذرًا، هذه ليست الإجابة الصحيحة. باستخدام الشرائح، يمكنك تجميع المستخدمين استنادًا إلى سمات بعينها، مثل المعلومات الديموغرافية أو الإجراءات يتم اتخاذها والأجهزة المستخدمة."
            },
            "_partlyCorrect": {
                "notFinal": "",
                "final": "باستخدام الشرائح، يمكنك تجميع المستخدمين استنادًا إلى سمات بعينها، مثل المعلومات الديموغرافية أو الإجراءات يتم اتخاذها والأجهزة المستخدمة."
            }
        },
        "_buttons": {
            "_submit": {
                "buttonText": "إرسال",
                "ariaLabel": "حدد هنا لإرسال إجابتك."
            },
            "_reset": {
                "buttonText": "إعادة تعيين",
                "ariaLabel": ""
            },
            "_showCorrectAnswer": {
                "buttonText": "الإجابة الصحيحة",
                "ariaLabel": ""
            },
            "_hideCorrectAnswer": {
                "buttonText": "إجابتي",
                "ariaLabel": ""
            },
            "_showFeedback": {
                "buttonText": "إظهار الملاحظات",
                "ariaLabel": ""
            },
            "remainingAttemptsText": "محاولات متبقية",
            "remainingAttemptText": "محاولة أخيرة"
        },
        "_pageLevelProgress": {
            "_isEnabled": true
        }
    }, {
        "_id": "c-920",
        "_parentId": "b-920",
        "_type": "component",
        "_component": "mcq",
        "_classes": "",
        "_layout": "full",
        "_attempts": 1,
        "_shouldDisplayAttempts": false,
        "_questionWeight": 1,
        "_isRandom": false,
        "_selectable": 2,
        "_canShowModelAnswer": true,
        "_setCompletionOn":"inview",
        "_recordInteraction": true,
        "title": "سؤال 3 من 4",
        "displayTitle": "سؤال 3 من 4",
        "body": "كيف يمكن للأنشطة التجارية تحسين الاحتفاظ بالمستخدمين؟ (حدد إجابتين)",
        "instruction": "",
        "_items": [{
            "text": "منحهم محفزات تشجعهم على تشغيل التطبيق",
            "_shouldBeSelected": true
        }, {
            "text": "إنشاء إعلانات تثبيت تطبيقات الهواتف المحمولة",
            "_shouldBeSelected": false
        }, {
            "text": "إنشاء حملات إعلانية يومية ترسل إشعارات مباشرة لمرة واحدة",
            "_shouldBeSelected": false
        }, {
            "text": "تعليمهم كيفية استخدام التطبيق",
            "_shouldBeSelected": true
        }],
        "_feedback": {
            "correct": "أحسنت! يمكن للأنشطة التجارية تحسين الاحتفاظ بالعملاء بتقديم محفزات للمستخدمين أو تعليمهم كيفية استخدام التطبيق.",
            "_incorrect": {
                "notFinal": "",
                "final": "عذرًا، إجابة خاطئة. يمكن للأنشطة التجارية تحسين الاحتفاظ بالعملاء بتقديم محفزات للمستخدمين أو تعليمهم كيفية استخدام التطبيق."
            },
            "_partlyCorrect": {
                "notFinal": "",
                "final": "يمكن للأنشطة التجارية تحسين الاحتفاظ بالعملاء بتقديم محفزات للمستخدمين أو تعليمهم كيفية استخدام التطبيق."
            }
        },
        "_buttons": {
            "_submit": {
                "buttonText": "إرسال",
                "ariaLabel": "حدد هنا لإرسال إجابتك."
            },
            "_reset": {
                "buttonText": "إعادة تعيين",
                "ariaLabel": ""
            },
            "_showCorrectAnswer": {
                "buttonText": "الإجابة الصحيحة",
                "ariaLabel": ""
            },
            "_hideCorrectAnswer": {
                "buttonText": "إجابتي",
                "ariaLabel": ""
            },
            "_showFeedback": {
                "buttonText": "إظهار الملاحظات",
                "ariaLabel": ""
            },
            "remainingAttemptsText": "محاولات متبقية",
            "remainingAttemptText": "محاولة أخيرة"
        },
        "_pageLevelProgress": {
            "_isEnabled": true
        }
    }, {
        "_id": "c-930",
        "_parentId": "b-930",
        "_type": "component",
        "_component": "mcq",
        "_classes": "",
        "_layout": "full",
        "_attempts": 1,
        "_shouldDisplayAttempts": false,
        "_questionWeight": 1,
        "_isRandom": false,
        "_selectable": 1,
        "_setCompletionOn":"inview",
        "_canShowModelAnswer": true,
        "_recordInteraction": true,
        "title": "سؤال 4 من 4",
        "displayTitle": "سؤال 4 من 4",
        "body": "ما الذي ينبغي على النشاط التجاري فعله عند الرغبة في إرسال إشعار يحتوي على صورة إلى المستخدمين استنادًا إلى نوعين من المعايير، مثل الحد الأدنى لمبلغ الشراء في فترة زمنية محددة؟",
        "instruction": "",
        "_items": [{
            "text": "إنشاء حملة إعلانية لمرة واحدة باستخدام الإشعارات داخل التطبيق",
            "_shouldBeSelected": false
        }, {
            "text": "إنشاء حملة إعلانية لمرة واحدة باستخدام الإشعارات المباشرة",
            "_shouldBeSelected": false
        }, {
            "text": "إنشاء حملة إعلانية مستمرة باستخدام الإشعارات داخل التطبيق",
            "_shouldBeSelected": true
        }, {
            "text": "إنشاء حملة إعلانية مستمرة باستخدام الإشعارات المباشرة",
            "_shouldBeSelected": false
        }],
        "_feedback": {
            "correct": "أحسنت! يجب على النشاط التجاري إنشاء حملة إعلانية مستمرة باستخدام الإشعارات داخل التطبيق. تذكر أن الإشعارات المباشرة لا تدعم الصور.",
            "_incorrect": {
                "notFinal": "",
                "final": "عذرًا، إجابة خاطئة. يجب على النشاط التجاري إنشاء حملة إعلانية مستمرة باستخدام الإشعارات داخل التطبيق. تذكر أن الإشعارات المباشرة لا تدعم الصور."
            },
            "_partlyCorrect": {
                "notFinal": "",
                "final": "يجب على النشاط التجاري إنشاء حملة إعلانية مستمرة باستخدام الإشعارات داخل التطبيق. تذكر أن الإشعارات المباشرة لا تدعم الصور."
            }
        },
        "_buttons": {
            "_submit": {
                "buttonText": "إرسال",
                "ariaLabel": "حدد هنا لإرسال إجابتك."
            },
            "_reset": {
                "buttonText": "إعادة تعيين",
                "ariaLabel": ""
            },
            "_showCorrectAnswer": {
                "buttonText": "الإجابة الصحيحة",
                "ariaLabel": ""
            },
            "_hideCorrectAnswer": {
                "buttonText": "إجابتي",
                "ariaLabel": ""
            },
            "_showFeedback": {
                "buttonText": "إظهار الملاحظات",
                "ariaLabel": ""
            },
            "remainingAttemptsText": "محاولات متبقية",
            "remainingAttemptText": "محاولة أخيرة"
        },
        "_pageLevelProgress": {
            "_isEnabled": true
        }
    }, {
        "_id": "c-950",
        "_parentId": "b-950",
        "_type":"component",
        "_component":"co-jump",
        "_classes":"color-test",
        "_autoComplete":true,
        "_preLinkBody":"انقر على الزر التالي لإنهاء هذه الدورة التدريبية. ملاحظة: <a href='#'>انقر هنا</a> للتحقق من اكتمال أشرطة الحالة لكل وحدة.<br>",
        "_linkBody":"<div style = 'text-align:center;padding:8px;'><button class='buttons-action'><b>لقد أنهيت هذه الدورة التدريبية</b></button></div><br> ",
        "_postLinkBody":"",
        "_link":"",
        "_pageLevelProgress": {
            "_isEnabled": false
        }
    }

]
